{
    "Routes": [
        {
          "DownstreamPathTemplate": "/api/{version}/{everything}",
          "DownstreamScheme": "http",
          "DownstreamHostAndPorts": [
            {
              "Host": "identity",
              "Port": 80
            }
          ],
          "UpstreamPathTemplate": "/api/{version}/identity/{everything}",
          "UpstreamHttpMethod": [ "Get" ]
        },
        {
          "DownstreamPathTemplate": "/{everything}",
          "DownstreamScheme": "http",
          "DownstreamHostAndPorts": [
            {
              "Host": "identity",
              "Port": 80
            }
          ],
          "UpstreamPathTemplate": "/api/identity/{everything}",
          "UpstreamHttpMethod": [ "Get" ],
          "SwaggerKey": "docs-identity"
        }
    ]
}